[ {
  "values" : [ "Customer App" ],
  "name" : "APP Name"
}, {
  "values" : [ "QA Testing" ],
  "name" : "Environment"
}, {
  "values" : [ "5.2.1" ],
  "name" : "APP Version"
}, {
  "values" : [ "Andriod" ],
  "name" : "Platform"
}, {
  "values" : [ "http://localhost:8080/job/CustomerApp/allure/" ],
  "name" : "BuildUrl"
} ]