"Epic","Feature","Story","FAILED","BROKEN","PASSED","SKIPPED","UNKNOWN"
"Smoke Testing Suite","Profile Screen","Story Name : To check and Verify first move menu screen --> click on My profile filed --> click on edit icon of delivery preference --> Select Moring timeslot--> click on Done button","0","0","1","0","0"
"Smoke Testing Suite","Profile Screen","Story Name : To check and Verify first move menu screen --> click on My profile filed --> click on edit icon of delivery preference --> Select evening timeslot--> click on Done button","0","0","1","0","0"
"Smoke Testing Suite","Profile Screen","Story Name : To check and Verify first move menu screen --> click on My profile filed --> click on edit icon of delivery preference --> Select Don't Ring the bell--> click on Done button","0","0","1","0","0"
"Smoke Testing Suite","Profile Screen","Story Name : To check and Verify first move menu screen --> click on My profile filed --> click on edit icon of Address Section --> Enter Valid flatNo Filed--> click on SaveAddress button","0","0","1","0","0"
"Smoke Testing Suite","Profile Screen","Story Name : To check and Verify first move menu screen --> click on My profile filed --> click on edit icon of Address Section --> Enter Valid delivery location  Filed--> click on SaveAddress button","0","0","1","0","0"
"Smoke Testing Suite","Profile Screen","Story Name : To check and Verify first move menu screen --> click on My profile filed --> click on edit icon of delivery preference --> Retry the Voice--> click on Done button","0","1","0","0","0"
"Smoke Testing Suite","Profile Screen","Story Name : To check and Verify first move menu screen --> click on My profile filed --> click on edit icon of delivery preference --> Adding Voice--> click on Done button","0","0","1","0","0"
"Smoke Testing Suite","Profile Screen","Story Name : To check and Verify first move menu screen --> click on My profile filed --> click on edit icon --> Enter Valid Upper and Lower case in Name Filed, valid email id and valid alternate no--> click on Done button","0","0","1","0","0"
"Smoke Testing Suite","Profile Screen","Story Name : To check and Verify first move menu screen --> click on My profile filed --> click on edit icon of delivery preference --> Select Ring the bell--> click on Done button","0","0","1","0","0"
"Smoke Testing Suite","Profile Screen","Story Name : To check and Verify first move menu screen --> click on My profile filed --> click on edit icon of Address Section --> Select city and locality --> click on SaveAddress button","0","0","0","0","1"
