launch_status failed=0 1625806181000000000
launch_status broken=1 1625806181000000000
launch_status passed=8 1625806181000000000
launch_status skipped=0 1625806181000000000
launch_status unknown=1 1625806181000000000
launch_time duration=460515 1625806181000000000
launch_time min_duration=2 1625806181000000000
launch_time max_duration=79605 1625806181000000000
launch_time sum_duration=343189 1625806181000000000
launch_problems test_defects=1 1625806181000000000
launch_retries retries=0 1625806181000000000
launch_retries run=10 1625806181000000000
