{
  "aa64191179b80bcff0296208c160440d" : {
    "statistic" : {
      "failed" : 0,
      "broken" : 0,
      "skipped" : 0,
      "passed" : 1,
      "unknown" : 0,
      "total" : 1
    },
    "items" : [ {
      "uid" : "c6a7059e1e20b17d",
      "status" : "passed",
      "time" : {
        "start" : 1625806035776,
        "stop" : 1625806059557,
        "duration" : 23781
      }
    } ]
  },
  "744d18a1df4f25685af4c27713843688" : {
    "statistic" : {
      "failed" : 0,
      "broken" : 0,
      "skipped" : 0,
      "passed" : 1,
      "unknown" : 0,
      "total" : 1
    },
    "items" : [ {
      "uid" : "c22cb40fcdcc71a1",
      "status" : "passed",
      "time" : {
        "start" : 1625805972769,
        "stop" : 1625805991452,
        "duration" : 18683
      }
    } ]
  },
  "626cfd241937e4e91e69a8c91ec2d820" : {
    "statistic" : {
      "failed" : 0,
      "broken" : 0,
      "skipped" : 0,
      "passed" : 1,
      "unknown" : 0,
      "total" : 1
    },
    "items" : [ {
      "uid" : "657ed0544f2bbe33",
      "status" : "passed",
      "time" : {
        "start" : 1625805917361,
        "stop" : 1625805935422,
        "duration" : 18061
      }
    } ]
  },
  "2408044e901942f1db08c0afcf4e118a" : {
    "statistic" : {
      "failed" : 0,
      "broken" : 0,
      "skipped" : 0,
      "passed" : 1,
      "unknown" : 0,
      "total" : 1
    },
    "items" : [ {
      "uid" : "f5d8eaaad1ed336d",
      "status" : "passed",
      "time" : {
        "start" : 1625805792287,
        "stop" : 1625805842090,
        "duration" : 49803
      }
    } ]
  },
  "2f20609e55d3dcb07b52d441baebcc9c" : {
    "statistic" : {
      "failed" : 0,
      "broken" : 0,
      "skipped" : 0,
      "passed" : 1,
      "unknown" : 0,
      "total" : 1
    },
    "items" : [ {
      "uid" : "31ff0604149705c0",
      "status" : "passed",
      "time" : {
        "start" : 1625805946111,
        "stop" : 1625805962722,
        "duration" : 16611
      }
    } ]
  },
  "b3432c857c62bff45b89404ff2360365" : {
    "statistic" : {
      "failed" : 0,
      "broken" : 0,
      "skipped" : 0,
      "passed" : 1,
      "unknown" : 0,
      "total" : 1
    },
    "items" : [ {
      "uid" : "2a266369da8d92bd",
      "status" : "passed",
      "time" : {
        "start" : 1625805701057,
        "stop" : 1625805780662,
        "duration" : 79605
      }
    } ]
  },
  "ecc18f6a4f26adf1ed0e67a268f6df4b" : {
    "statistic" : {
      "failed" : 0,
      "broken" : 1,
      "skipped" : 0,
      "passed" : 0,
      "unknown" : 0,
      "total" : 1
    },
    "items" : [ {
      "uid" : "cd2e539761efafea",
      "status" : "broken",
      "statusDetails" : "An element could not be located on the page using the given search parameters.\nFor documentation on this error, please visit: https://www.seleniumhq.org/exceptions/no_such_element.html\nBuild info: version: '3.141.59', revision: 'e82be7d358', time: '2018-11-14T08:17:03'\nSystem info: host: 'dell-Latitude-5490', ip: '127.0.1.1', os.name: 'Linux', os.arch: 'amd64', os.version: '4.15.0-143-generic', java.version: '1.8.0_292'\nDriver info: io.appium.java_client.android.AndroidDriver\nCapabilities {app: /home/dell/Downloads/APK/CD..., appPackage: app.mycountrydelight.in.cou..., appWaitActivity: .new_home.HomeActivity, autoGrantPermission: true, automationName: Appium, databaseEnabled: false, desired: {app: /home/dell/Downloads/APK/CD..., appPackage: app.mycountrydelight.in.cou..., appWaitActivity: .new_home.HomeActivity, autoGrantPermission: true, automationName: Appium, device: Android, deviceName: Redmi, noReset: true, platformName: android, skipDeviceInitialization: true, skipServerInstallation: true, udid: 050bd4807d2b}, device: Android, deviceApiLevel: 27, deviceManufacturer: Xiaomi, deviceModel: Redmi 6A, deviceName: 050bd4807d2b, deviceScreenDensity: 320, deviceScreenSize: 720x1440, deviceUDID: 050bd4807d2b, javascriptEnabled: true, locationContextEnabled: false, networkConnectionEnabled: true, noReset: true, pixelRatio: 2, platform: LINUX, platformName: Android, platformVersion: 8.1.0, skipDeviceInitialization: true, skipServerInstallation: true, statBarHeight: 50, takesScreenshot: true, udid: 050bd4807d2b, viewportRect: {height: 1294, left: 0, top: 50, width: 720}, warnings: {}, webStorageEnabled: false}\nSession ID: 3556ceea-efca-4b69-b0da-694d058fda86\n*** Element info: {Using=xpath, value=//android.widget.TextView[@text='Profile']}",
      "time" : {
        "start" : 1625806070518,
        "stop" : 1625806135505,
        "duration" : 64987
      }
    } ]
  },
  "c56ce89d8fc23be407f7d81b3a3cbac6" : {
    "statistic" : {
      "failed" : 0,
      "broken" : 0,
      "skipped" : 0,
      "passed" : 0,
      "unknown" : 1,
      "total" : 1
    },
    "items" : [ {
      "uid" : "6e35f11ff38bcf70",
      "status" : "unknown",
      "time" : {
        "start" : 1625805674990,
        "stop" : 1625805674992,
        "duration" : 2
      }
    } ]
  },
  "38025805b47d52e1214ced034e971e10" : {
    "statistic" : {
      "failed" : 0,
      "broken" : 0,
      "skipped" : 0,
      "passed" : 1,
      "unknown" : 0,
      "total" : 1
    },
    "items" : [ {
      "uid" : "93a69c36d0c57814",
      "status" : "passed",
      "time" : {
        "start" : 1625805854748,
        "stop" : 1625805905155,
        "duration" : 50407
      }
    } ]
  },
  "d7f9f03eff1e14397fc4628867d0bef8" : {
    "statistic" : {
      "failed" : 0,
      "broken" : 0,
      "skipped" : 0,
      "passed" : 1,
      "unknown" : 0,
      "total" : 1
    },
    "items" : [ {
      "uid" : "52409fc11556b676",
      "status" : "passed",
      "time" : {
        "start" : 1625806003647,
        "stop" : 1625806024896,
        "duration" : 21249
      }
    } ]
  }
}